tb/mac_core.vcd
$date
	Sat Jul 16 21:48:30 2016
$end

$version
	Synopsys VCS version I-2014.03-2
$end

$timescale
	1ps
$end

$comment Csum: 1 957a20b86b31e650 $end


$scope module ethernet_tb $end
$var reg 1 ! tx_clk $end
$var reg 32 " start_addr [31:0] $end

$scope function generate_wr_addr_to_axi $end
$var reg 32 # generate_wr_addr_to_axi [31:0] $end
$var reg 32 $ num [31:0] $end
$upscope $end


$scope task traffic_gen $end
$var reg 32 % i [31:0] $end
$upscope $end


$scope task generate_pkt $end
$var reg 32 & num [31:0] $end
$upscope $end


$scope begin unnamed$$_7 $end
$upscope $end


$scope begin unnamed$$_8 $end
$upscope $end


$scope begin unnamed$$_9 $end
$upscope $end


$scope begin unnamed$$_10 $end
$upscope $end


$scope begin unnamed$$_11 $end
$upscope $end


$scope module clks $end
$var reg 1 ' clk $end
$var reg 1 ( rst $end
$upscope $end


$scope module rd_addr_ch $end
$var wire 4 ) ARID [3:0] $end
$var wire 32 * ARADDR [31:0] $end
$var wire 4 + ARLEN [3:0] $end
$var wire 3 , ARSIZE [2:0] $end
$var wire 2 - ARBURST [1:0] $end
$var wire 2 . ARLOCK [1:0] $end
$var wire 4 / ARCACHE [3:0] $end
$var wire 3 0 ARPROT [2:0] $end
$var wire 1 1 ARQOS $end
$var wire 1 2 ARREGION $end
$var wire 1 3 ARUSER $end
$var wire 1 4 ARVALID $end
$var wire 1 5 ARREADY $end
$upscope $end


$scope module rd_data_ch $end
$var wire 4 6 RID [3:0] $end
$var wire 64 7 RDATA [63:0] $end
$var wire 2 8 RRESP [1:0] $end
$var wire 1 9 RLAST $end
$var wire 1 : RUSER $end
$var wire 1 ; RVAILD $end
$var wire 1 < RREADY $end
$upscope $end


$scope module wr_data_ch $end
$var wire 4 = WID [3:0] $end
$var wire 64 > WDATA [63:0] $end
$var wire 1 ? WLAST $end
$var wire 1 @ WVALID $end
$var wire 1 A WREADY $end
$upscope $end


$scope module wr_addr_ch $end
$var wire 32 B AWADDR [31:0] $end
$var wire 4 C AWLEN [3:0] $end
$var wire 3 D AWSIZE [2:0] $end
$var wire 2 E AWBURST [1:0] $end
$var wire 1 F AWVALID $end
$var wire 1 G AWREADY $end
$var wire 4 H AWID [3:0] $end
$var wire 2 I AWLOCK [1:0] $end
$var wire 2 J AWCACHE [1:0] $end
$var wire 3 K AWPROT [2:0] $end
$upscope $end


$scope module wr_resp_ch $end
$var wire 4 L BID [3:0] $end
$var wire 2 M BRESP [1:0] $end
$var wire 1 N BVALID $end
$var wire 1 O BREADY $end
$var wire 1 P BUSER $end
$upscope $end


$scope module tx $end

$scope module tx_core $end
$var wire 32 Q reg_write_addr [31:0] $end
$var wire 64 R reg_write_data [63:0] $end
$var wire 1 S wr_en $end

$scope begin linkregs $end
$upscope $end


$scope module dma_reg_tx $end
$var wire 32 Q slave_addr [31:0] $end
$var wire 64 R slave_data [63:0] $end
$var wire 1 S wr_en $end

$scope begin linkregs $end
$upscope $end

$var reg 64 T baddr [63:0] $end
$var reg 64 U baddr_nxt [63:0] $end

$scope begin clink_ptr $end
$upscope $end


$scope begin clink_ptr_nxt $end
$upscope $end

$var reg 64 V reg_0 [63:0] $end
$var reg 64 W reg_1 [63:0] $end
$var reg 64 X reg_2 [63:0] $end
$var reg 64 Y reg_3 [63:0] $end
$var reg 64 Z reg_4 [63:0] $end
$var reg 64 [ reg_5 [63:0] $end
$var reg 64 \ reg_6 [63:0] $end
$var reg 64 ] reg_7 [63:0] $end
$var reg 64 ^ reg_8 [63:0] $end
$var reg 64 _ reg_9 [63:0] $end
$var reg 64 ` reg_10 [63:0] $end
$var reg 64 a reg_11 [63:0] $end
$var reg 64 b reg_12 [63:0] $end
$var reg 64 c reg_13 [63:0] $end
$var reg 64 d reg_14 [63:0] $end
$var reg 64 e reg_15 [63:0] $end

$scope begin unnamed$$_2 $end
$upscope $end

$upscope $end


$scope module axi_slave $end
$var wire 64 R reg_write_data [63:0] $end
$var wire 32 Q reg_write_addr [31:0] $end
$var wire 1 S wr_en $end
$var reg 1 f bvalid $end
$var reg 2 g bresp [1:0] $end
$var reg 4 h bid [3:0] $end
$var reg 1 i wchrsp_full $end
$var reg 1 j wchrsp_empty $end
$var reg 1 k wchrsp_push $end
$var reg 1 l wchrsp_pull $end
$var reg 6 m wchrsp_datain [5:0] $end
$var reg 6 n wchrsp_dataout [5:0] $end
$var wire 1 o wchrsp_depthleft $end
$var reg 2 p w_ach_cur_state [1:0] $end
$var reg 2 q w_ach_nxt_state [1:0] $end
$var reg 2 r w_dch_cur_state [1:0] $end
$var reg 2 s w_dch_nxt_state [1:0] $end
$var reg 2 t w_rspch_cur_state [1:0] $end
$var reg 2 u w_rspch_nxt_state [1:0] $end
$var reg 1 v wchaddr_full $end
$var reg 1 w wchaddr_empty $end
$var reg 1 x wchaddr_push $end
$var reg 1 y wchaddr_pull $end
$var reg 1 z wchaddr_push_nxt $end
$var reg 1 { wchaddr_pull_nxt $end
$var reg 36 | wchaddr_datain [35:0] $end
$var reg 36 } wchaddr_dataout [35:0] $end
$var reg 1 ~ awready_d $end
$var reg 1 "! awready_nxt $end
$var reg 6 "" wchaddr_depthleft [5:0] $end
$var reg 6 "# wchdata_depthleft [5:0] $end
$var reg 32 "$ burst_addr_d [31:0] $end
$var reg 32 "% burst_addr_nxt [31:0] $end
$var reg 4 "& burst_cnt_d [3:0] $end
$var reg 4 "' burst_cnt_nxt [3:0] $end
$var reg 1 "( wchdata_full $end
$var reg 1 ") wchdata_empty $end
$var reg 1 "* wchdata_push $end
$var reg 1 "+ wchdata_pull $end
$var reg 64 ", wchdata_datain [63:0] $end
$var reg 64 "- wchdata_dataout [63:0] $end
$var reg 4 ". arlen_d [3:0] $end
$var reg 4 "/ arlen_nxt [3:0] $end
$var reg 1 "0 burst_on $end
$var reg 1 "1 wr_en_reg $end
$var reg 32 "2 write_addr_reg [31:0] $end
$var reg 1 "3 wready_nxt $end
$var reg 1 "4 wready_d $end
$var reg 2 "5 brsp [1:0] $end

$scope module wchrsp_fifo $end
$var wire 1 "6 push $end
$var wire 1 "7 pull $end
$var wire 6 "8 data_in [5:0] $end
$var wire 6 "9 data_out [5:0] $end
$var reg 6 ": depth_left [5:0] $end
$var wire 1 "; full $end
$var wire 1 "< empty $end
$var reg 5 "= w_ptr [4:0] $end
$var reg 5 "> r_ptr [4:0] $end
$var reg 6 "? reg_0 [5:0] $end
$var reg 6 "@ reg_1 [5:0] $end
$var reg 6 "A reg_2 [5:0] $end

$scope task _$$txp______assert_unnamed$$_6 $end
$upscope $end


$scope task _$$txp______assert_unnamed$$_7 $end
$upscope $end

$upscope $end


$scope module wchaddr_fifo $end
$var wire 1 "B push $end
$var wire 1 "C pull $end
$var wire 36 "D data_in [35:0] $end
$var wire 36 "E data_out [35:0] $end
$var reg 6 "F depth_left [5:0] $end
$var wire 1 "G full $end
$var wire 1 "H empty $end
$var reg 5 "I w_ptr [4:0] $end
$var reg 5 "J r_ptr [4:0] $end
$var reg 36 "K reg_0 [35:0] $end
$var reg 36 "L reg_1 [35:0] $end
$var reg 36 "M reg_2 [35:0] $end

$scope task _$$txp______assert_unnamed$$_6 $end
$upscope $end


$scope task _$$txp______assert_unnamed$$_7 $end
$upscope $end

$upscope $end


$scope module wchdata_fifo $end
$var wire 1 "N push $end
$var wire 1 "O pull $end
$var wire 32 "P data_in [31:0] $end
$var wire 32 "Q data_out [31:0] $end
$var reg 6 "R depth_left [5:0] $end
$var wire 1 "S full $end
$var wire 1 "T empty $end
$var reg 5 "U w_ptr [4:0] $end
$var reg 5 "V r_ptr [4:0] $end
$var reg 32 "W reg_0 [31:0] $end
$var reg 32 "X reg_1 [31:0] $end
$var reg 32 "Y reg_2 [31:0] $end

$scope task _$$txp______assert_unnamed$$_6 $end
$upscope $end


$scope task _$$txp______assert_unnamed$$_7 $end
$upscope $end

$upscope $end

$upscope $end

$upscope $end

$upscope $end


$scope module tb_axi_master $end
$var reg 1 "Z waddr_empty $end
$var reg 1 "[ wdata_empty $end
$var reg 3 "\ wra_cur_state [2:0] $end
$var reg 3 "] wra_nxt_state [2:0] $end
$var reg 3 "^ wrd_cur_state [2:0] $end
$var reg 3 "_ wrd_nxt_state [2:0] $end
$var reg 1 "` awvalid_d $end
$var reg 1 "a awvalid_nxt $end
$var reg 1 "b awburst_d $end
$var reg 1 "c awburst_nxt $end
$var reg 4 "d awlen_d [3:0] $end
$var reg 4 "e awlen_nxt [3:0] $end
$var reg 3 "f awsize_d [2:0] $end
$var reg 3 "g awsize_nxt [2:0] $end
$var reg 1 "h wvalid_d $end
$var reg 1 "i wvalid_nxt $end
$var reg 32 "j awaddr_d [31:0] $end
$var reg 32 "k awaddr_nxt [31:0] $end
$var reg 64 "l wdata_d [63:0] $end
$var reg 64 "m wdata_nxt [63:0] $end
$var reg 4 "n awid_d [3:0] $end
$var reg 4 "o wid_d [3:0] $end
$var reg 1 "p pop $end

$scope begin unnamed$$_21 $end
$upscope $end


$scope begin unnamed$$_22 $end
$upscope $end


$scope begin unnamed$$_23 $end
$upscope $end

$upscope $end

$upscope $end

$enddefinitions $end

#0
$dumpvars
0!
bxxxxxxxxxxxxxxxxxxxxxxxxxxxxxxxx #
b11111111111111110000000000001000 "
b00000000000000000000000000000000 &
b00000000000000000000000000000000 $
b00000000000000000000000000000000 %
1(
0'
x~
0"!
x"0
0f
x"<
x";
0"7
x"6
xw
x"H
x"G
x"C
x"B
xv
xy
x{
xx
xz
x")
x"T
x"S
0"O
x"N
x"(
0"+
x"*
xo
xj
xi
0l
xk
x"1
x"4
0"3
bxxxx ".
bxxxx "/
bxxxx h
bxx g
bxx "5
bxxxxxxxxxxxxxxxxxxxxxxxxxxxxxxxx "$
b00000000000000000000000000000000 "%
bxxxx "&
b0000 "'
b00xxxx "8
bxxxxxx "9
bxxxxxx ":
bxxxxx ">
bxxxxxx "?
bxxxxxx "@
bxxxxxx "A
bxx p
bxx q
bxx r
bxx s
bxxxxx "=
bxx t
bxx u
bxxxxxxxxxxxxxxxxxxxxxxxxxxxxxxxxxxxx |
bxxxxxxxxxxxxxxxxxxxxxxxxxxxxxxxxxxxx }
bxxxxxx ""
bxxxxxxxxxxxxxxxxxxxxxxxxxxxxxxxxxxxx "D
bxxxxxxxxxxxxxxxxxxxxxxxxxxxxxxxxxxxx "E
bxxxxxx "F
bxxxxx "J
bxxxxxxxxxxxxxxxxxxxxxxxxxxxxxxxxxxxx "K
bxxxxxxxxxxxxxxxxxxxxxxxxxxxxxxxxxxxx "L
bxxxxxxxxxxxxxxxxxxxxxxxxxxxxxxxxxxxx "M
bxxxxx "I
bxxxxxxxxxxxxxxxxxxxxxxxxxxxxxxxxxxxxxxxxxxxxxxxxxxxxxxxxxxxxxxxx ",
b00000000000000000000000000000000xxxxxxxxxxxxxxxxxxxxxxxxxxxxxxxx "-
bxxxxxx "#
bxxxxxxxxxxxxxxxxxxxxxxxxxxxxxxxx "P
bxxxxxxxxxxxxxxxxxxxxxxxxxxxxxxxx "Q
bxxxxxx "R
bxxxxx "V
bxxxxxxxxxxxxxxxxxxxxxxxxxxxxxxxx "W
bxxxxxxxxxxxxxxxxxxxxxxxxxxxxxxxx "X
bxxxxxxxxxxxxxxxxxxxxxxxxxxxxxxxx "Y
bxxxxx "U
b00xxxx m
bxxxxxx n
bxxxxxxxxxxxxxxxxxxxxxxxxxxxxxxxx "2
bxxxxxxxxxxxxxxxxxxxxxxxxxxxxxxxxxxxxxxxxxxxxxxxxxxxxxxxxxxxxxxxx U
bxxxxxxxxxxxxxxxxxxxxxxxxxxxxxxxxxxxxxxxxxxxxxxxxxxxxxxxxxxxxxxxx T
bxxxxxxxxxxxxxxxxxxxxxxxxxxxxxxxxxxxxxxxxxxxxxxxxxxxxxxxxxxxxxxxx V
bxxxxxxxxxxxxxxxxxxxxxxxxxxxxxxxxxxxxxxxxxxxxxxxxxxxxxxxxxxxxxxxx `
bxxxxxxxxxxxxxxxxxxxxxxxxxxxxxxxxxxxxxxxxxxxxxxxxxxxxxxxxxxxxxxxx a
bxxxxxxxxxxxxxxxxxxxxxxxxxxxxxxxxxxxxxxxxxxxxxxxxxxxxxxxxxxxxxxxx b
bxxxxxxxxxxxxxxxxxxxxxxxxxxxxxxxxxxxxxxxxxxxxxxxxxxxxxxxxxxxxxxxx c
bxxxxxxxxxxxxxxxxxxxxxxxxxxxxxxxxxxxxxxxxxxxxxxxxxxxxxxxxxxxxxxxx d
bxxxxxxxxxxxxxxxxxxxxxxxxxxxxxxxxxxxxxxxxxxxxxxxxxxxxxxxxxxxxxxxx e
bxxxxxxxxxxxxxxxxxxxxxxxxxxxxxxxxxxxxxxxxxxxxxxxxxxxxxxxxxxxxxxxx W
bxxxxxxxxxxxxxxxxxxxxxxxxxxxxxxxxxxxxxxxxxxxxxxxxxxxxxxxxxxxxxxxx X
bxxxxxxxxxxxxxxxxxxxxxxxxxxxxxxxxxxxxxxxxxxxxxxxxxxxxxxxxxxxxxxxx Y
bxxxxxxxxxxxxxxxxxxxxxxxxxxxxxxxxxxxxxxxxxxxxxxxxxxxxxxxxxxxxxxxx Z
bxxxxxxxxxxxxxxxxxxxxxxxxxxxxxxxxxxxxxxxxxxxxxxxxxxxxxxxxxxxxxxxx [
bxxxxxxxxxxxxxxxxxxxxxxxxxxxxxxxxxxxxxxxxxxxxxxxxxxxxxxxxxxxxxxxx \
bxxxxxxxxxxxxxxxxxxxxxxxxxxxxxxxxxxxxxxxxxxxxxxxxxxxxxxxxxxxxxxxx ]
bxxxxxxxxxxxxxxxxxxxxxxxxxxxxxxxxxxxxxxxxxxxxxxxxxxxxxxxxxxxxxxxx ^
bxxxxxxxxxxxxxxxxxxxxxxxxxxxxxxxxxxxxxxxxxxxxxxxxxxxxxxxxxxxxxxxx _
x"b
0"c
x"`
x"a
0"p
x"Z
x"[
x"h
x"i
bxxxxxxxxxxxxxxxxxxxxxxxxxxxxxxxx "j
bxxxxxxxxxxxxxxxxxxxxxxxxxxxxxxxx "k
bxxxx "n
bxxxx "d
b0000 "e
bxxx "f
bxxx "g
bxxxxxxxxxxxxxxxxxxxxxxxxxxxxxxxxxxxxxxxxxxxxxxxxxxxxxxxxxxxxxxxx "l
bxxxxxxxxxxxxxxxxxxxxxxxxxxxxxxxxxxxxxxxxxxxxxxxxxxxxxxxxxxxxxxxx "m
bxxxx "o
bxxx "\
bxxx "]
bxxx "^
bxxx "_
xG
xA
0N
xS
xF
x@
0?
bzzzzzzzzzzzzzzzzzzzzzzzzzzzzzzzz *
bzz -
bzzzz /
bzzzz )
bzzzz +
bzz .
bzzz 0
z1
z5
z2
bzzz ,
z3
z4
bzzzzzzzzzzzzzzzzzzzzzzzzzzzzzzzzzzzzzzzzzzzzzzzzzzzzzzzzzzzzzzzz 7
bzzzz 6
z9
z<
bzz 8
z:
z;
bxxxxxxxxxxxxxxxxxxxxxxxxxxxxxxxxxxxxxxxxxxxxxxxxxxxxxxxxxxxxxxxx >
bxxxx =
bxxxxxxxxxxxxxxxxxxxxxxxxxxxxxxxx B
b0x E
bzz J
bzzzz H
bxxxx C
bzz I
bzzz K
bxxx D
bxxxx L
zO
bxx M
zP
bxxxxxxxxxxxxxxxxxxxxxxxxxxxxxxxx Q
bxxxxxxxxxxxxxxxxxxxxxxxxxxxxxxxxxxxxxxxxxxxxxxxxxxxxxxxxxxxxxxxx R
$end
#2000
0(
b00000000000000000000000000000000 "Q
b000000000000000000000000000000000000 "E
b000000000000000000000000000000000000 }
b000000 "9
b000000 n
b00000000000000000000000000000000 "2
b00000000000000000000000000000000 Q
b0000000000000000000000000000000000000000000000000000000000000000 "-
0"0
b0000 h
b0000 L
b00 "5
b00 p
0~
0G
b00 r
b00000000000000000000000000000000 "$
b0000 "&
0"4
0A
b00 t
b00000 "=
b00000 ">
b100000 ":
0o
1"<
1j
0";
0i
b00000 "I
b00000 "J
b100000 "F
b100000 ""
1"H
1w
0"G
0v
b00000 "U
b00000 "V
b100000 "R
b100000 "#
1"T
1")
0"S
0"(
b0000000000000000000000000000000000000000000000000000000000000000 T
b000 "\
b000 "^
0"`
0F
0"h
0@
b00000000000000000000000000000000 "j
b00000000000000000000000000000000 B
b0000000000000000000000000000000000000000000000000000000000000000 "l
b0000000000000000000000000000000000000000000000000000000000000000 >
b0000000000000000000000000000000000000000000000000000000000000000 R
b0000 "n
b0000 "o
1"Z
1"[
0"b
b00 E
b0000 "d
b0000 C
b011 "f
b011 D
b0000000000000000000000000000000000000000000000000000000000000000 e
b0000000000000000000000000000000000000000000000000000000000000000 d
b0000000000000000000000000000000000000000000000000000000000000000 c
b0000000000000000000000000000000000000000000000000000000000000000 b
b0000000000000000000000000000000000000000000000000000000000000000 a
b0000000000000000000000000000000000000000000000000000000000000000 `
b0000000000000000000000000000000000000000000000000000000000000000 _
b0000000000000000000000000000000000000000000000000000000000000000 ^
b0000000000000000000000000000000000000000000000000000000000000000 ]
b0000000000000000000000000000000000000000000000000000000000000000 \
b0000000000000000000000000000000000000000000000000000000000000000 [
b0000000000000000000000000000000000000000000000000000000000000000 Z
b0000000000000000000000000000000000000000000000000000000000000000 Y
b0000000000000000000000000000000000000000000000000000000000000000 X
b0000000000000000000000000000000000000000000000000000000000000000 W
b0000000000000000000000000000000000000000000000000000000000000000 V
b00 q
0x
0"B
b000000000000000000000000000000000000 |
b000000000000000000000000000000000000 "D
b011 "g
b00000000000000000000000000000000 "k
0"a
b000 "]
b00 s
0k
0"6
0"1
0S
0y
0"C
0"i
b000 "_
b00 u
b0000000000000000000000000000000000000000000000000000000000000000 ",
b00000000000000000000000000000000 "P
b0000 =
b000000 m
b000000 "8
#5000
1'
1!
#10000
0'
0!
#15000
1'
1!
#20000
0'
0!
#25000
1'
1!
#30000
0'
0!
#35000
1'
1!
#40000
0'
0!
#45000
1'
1!
#49000
1(
bxxxxxxxxxxxxxxxxxxxxxxxxxxxxxxxx "Q
bxxxxxxxxxxxxxxxxxxxxxxxxxxxxxxxxxxxx "E
bxxxxxxxxxxxxxxxxxxxxxxxxxxxxxxxxxxxx }
bxxxxxx "9
bxxxxxx n
b01 q
bxxxxxxxxxxxxxxxxxxxxxxxxxxxxxxxx "2
bxxxxxxxxxxxxxxxxxxxxxxxxxxxxxxxx Q
b01 s
b01 u
b001 "]
b001 "_
b00000000000000000000000000000000xxxxxxxxxxxxxxxxxxxxxxxxxxxxxxxx "-
x"0
bxxxx h
bxxxx L
bxx "5
#50000
0'
0!
#55000
1'
1!
#56000
b01 p
b01 r
b01 t
b001 "\
b001 "^
b0011 "n
b0011 "o
b0011 =
b000011 m
b000011 "8
#60000
0'
0!
#65000
1'
1!
#70000
0'
0!
#75000
1'
1!
#80000
0'
0!
#85000
1'
1!
#90000
0'
0!
#95000
1'
1!
#100000
0'
0!
#105000
1'
1!
#110000
0'
0!
#115000
1'
1!
#120000
0'
0!
#125000
1'
1!
#130000
0'
0!
#135000
1'
1!
#140000
0'
0!
#145000
1'
1!
b11111111111111110000000000001000 #
b00000000000000000000000000000001 &
b00000000000000000000000000000001 $
b11111111111111110000000000010000 #
b00000000000000000000000000000010 &
b00000000000000000000000000000010 $
b11111111111111110000000000011000 #
b00000000000000000000000000000011 &
b00000000000000000000000000000011 $
b11111111111111110000000000100000 #
b00000000000000000000000000000100 &
b00000000000000000000000000000100 $
b11111111111111110000000000101000 #
b00000000000000000000000000000101 %
#150000
0'
0!
#155000
1'
1!
#156000
0"Z
0"[
b11111111111111110000000000001000 "k
1"a
b010 "]
1"p
1"i
b010 "_
#160000
0'
0!
#165000
1'
1!
#166000
b010 "\
b010 "^
1"`
1F
1"h
1@
b11111111111111110000000000001000 "j
b11111111111111110000000000001000 B
b1111111100001010101000000001000000000000000000000000000010000000 "l
b1111111100001010101000000001000000000000000000000000000010000000 >
b1111111100001010101000000001000000000000000000000000000010000000 R
0"p
1"!
b000011111111111111110000000000001000 |
b000011111111111111110000000000001000 "D
b1111111100001010101000000001000000000000000000000000000010000000 ",
b00000000000000000000000010000000 "P
#170000
0'
0!
#175000
1'
1!
#176000
1~
1G
1x
1"B
b11111111111111110000000000010000 "k
#180000
0'
0!
#185000
1'
1!
#186000
b00001 "I
b011111 "F
b011111 ""
0"H
0w
b11111111111111110000000000010000 "j
b11111111111111110000000000010000 B
b000x "'
bxx s
1"3
b000011111111111111110000000000001000 "K
b11111111111111110000000000011000 "k
b000011111111111111110000000000010000 |
b000011111111111111110000000000010000 "D
b000011111111111111110000000000001000 "E
b000011111111111111110000000000001000 }
0"0
b0000 "'
b11111111111111110000000000001000 "2
b11111111111111110000000000001000 Q
b01 s
#190000
0'
0!
#195000
1'
1!
#196000
1"4
1A
b00010 "I
b011110 "F
b011110 ""
b11111111111111110000000000011000 "j
b11111111111111110000000000011000 B
1k
1"6
1"1
1S
1y
1"C
1"p
b000011111111111111110000000000010000 "L
b1111111100001010101000000001000000000000000000000000000010000000 V
b11111111111111110000000000100000 "k
b000011111111111111110000000000011000 |
b000011111111111111110000000000011000 "D
#200000
0'
0!
#205000
1'
1!
#206000
b00001 "=
b011111 ":
1o
0"<
0j
b00001 "J
b00011 "I
b11111111111111110000000000100000 "j
b11111111111111110000000000100000 B
b1111111110111001000111001001000000000000000000000000000000000100 "l
b1111111110111001000111001001000000000000000000000000000000000100 >
b1111111110111001000111001001000000000000000000000000000000000100 R
xl
x"7
1f
1N
b000011 "?
b000011111111111111110000000000010000 "E
b000011111111111111110000000000010000 }
b000011111111111111110000000000011000 "M
b11111111111111110000000000101000 "k
b000011111111111111110000000000100000 |
b000011111111111111110000000000100000 "D
b1111111110111001000111001001000000000000000000000000000000000100 ",
b00000000000000000000000000000100 "P
b000011 "9
b000011 n
b11111111111111110000000000010000 "2
b11111111111111110000000000010000 Q
b0011 h
b0011 L
b00 "5
#210000
0'
0!
#215000
1'
1!
#216000
b00010 "J
b00100 "I
b11111111111111110000000000101000 "j
b11111111111111110000000000101000 B
1"Z
b1111111110101100111001001101000000000000000000000000000000000001 "l
b1111111110101100111001001101000000000000000000000000000000000001 >
b1111111110101100111001001101000000000000000000000000000000000001 R
b000011111111111111110000000000011000 "E
b000011111111111111110000000000011000 }
b1111111110111001000111001001000000000000000000000000000000000100 W
0"a
b001 "]
b000011111111111111110000000000101000 |
b000011111111111111110000000000101000 "D
b1111111110101100111001001101000000000000000000000000000000000001 ",
b00000000000000000000000000000001 "P
b11111111111111110000000000011000 "2
b11111111111111110000000000011000 Q
#220000
0'
0!
#225000
1'
1!
#226000
b00011 "J
b00101 "I
b001 "\
0"`
0F
b1111111100100011000111011010000000000000000000000000000010000000 "l
b1111111100100011000111011010000000000000000000000000000010000000 >
b1111111100100011000111011010000000000000000000000000000010000000 R
b000011111111111111110000000000100000 "E
b000011111111111111110000000000100000 }
b1111111110101100111001001101000000000000000000000000000000000001 X
0"!
0x
0"B
b1111111100100011000111011010000000000000000000000000000010000000 ",
b00000000000000000000000010000000 "P
b11111111111111110000000000100000 "2
b11111111111111110000000000100000 Q
#230000
0'
0!
#235000
1'
1!
#236000
0~
0G
b00100 "J
b011111 "F
b011111 ""
b1111111101101100011010001011000000000000000000000000000000010000 "l
b1111111101101100011010001011000000000000000000000000000000010000 >
b1111111101101100011010001011000000000000000000000000000000010000 R
b000011111111111111110000000000101000 "E
b000011111111111111110000000000101000 }
b1111111100100011000111011010000000000000000000000000000010000000 Y
b1111111101101100011010001011000000000000000000000000000000010000 ",
b00000000000000000000000000010000 "P
b11111111111111110000000000101000 "2
b11111111111111110000000000101000 Q
#240000
0'
0!
#245000
1'
1!
#246000
b00101 "J
b100000 "F
b100000 ""
1"H
1w
1"[
bxxxxxxxxxxxxxxxxxxxxxxxxxxxxxxxxxxxxxxxxxxxxxxxxxxxxxxxxxxxxxxxx "l
bxxxxxxxxxxxxxxxxxxxxxxxxxxxxxxxxxxxxxxxxxxxxxxxxxxxxxxxxxxxxxxxx >
bxxxxxxxxxxxxxxxxxxxxxxxxxxxxxxxxxxxxxxxxxxxxxxxxxxxxxxxxxxxxxxxx R
bxxxxxxxxxxxxxxxxxxxxxxxxxxxxxxxxxxxx "E
bxxxxxxxxxxxxxxxxxxxxxxxxxxxxxxxxxxxx }
bxxxxxxxxxxxxxxxxxxxxxxxxxxxxxxxx "2
bxxxxxxxxxxxxxxxxxxxxxxxxxxxxxxxx Q
0"3
0y
0"C
b1111111101101100011010001011000000000000000000000000000000010000 Z
0"p
0"i
b001 "_
x"0
bxxxxxxxxxxxxxxxxxxxxxxxxxxxxxxxxxxxxxxxxxxxxxxxxxxxxxxxxxxxxxxxx ",
bxxxxxxxxxxxxxxxxxxxxxxxxxxxxxxxx "P
#250000
0'
0!
#255000
1'
1!
#256000
0"4
0A
b001 "^
0"h
0@
0k
0"6
0"1
0S
